{"timeMillis":1607955072294,"thread":"Default Executor-thread-5","level":"INFO","loggerName":"MOBTOEP_WORKFLOW","message":"Starting Workflow Service...","endOfBatch":false,"loggerFqcn":"org.apache.logging.slf4j.Log4jLogger","threadId":58,"threadPriority":5,"timestamp":"2020-12-14T15:11:12.294+0100"}
{"timeMillis":1607955072389,"thread":"Default Executor-thread-5","level":"DEBUG","loggerName":"MOBTOEP_WORKFLOW","message":"WorkflowConfig","endOfBatch":false,"loggerFqcn":"org.apache.logging.slf4j.Log4jLogger","threadId":58,"threadPriority":5,"timestamp":"2020-12-14T15:11:12.389+0100"}
{"timeMillis":1607955072392,"thread":"Default Executor-thread-5","level":"DEBUG","loggerName":"MOBTOEP_WORKFLOW","message":"workflowProperties : 4","endOfBatch":false,"loggerFqcn":"org.apache.logging.slf4j.Log4jLogger","threadId":58,"threadPriority":5,"timestamp":"2020-12-14T15:11:12.392+0100"}
{"timeMillis":1607955072396,"thread":"Default Executor-thread-5","level":"DEBUG","loggerName":"MOBTOEP_COMMON","message":"dabBizzTalkHost : https://biztalk-tst.devaddelijn.be:444","endOfBatch":false,"loggerFqcn":"org.apache.logging.slf4j.Log4jLogger","threadId":58,"threadPriority":5,"timestamp":"2020-12-14T15:11:12.396+0100"}
{"timeMillis":1607955072397,"thread":"Default Executor-thread-5","level":"DEBUG","loggerName":"MOBTOEP_COMMON","message":"temporaryDirectoryUrl : file:/tmp/tempFolderMobtoep","endOfBatch":false,"loggerFqcn":"org.apache.logging.slf4j.Log4jLogger","threadId":58,"threadPriority":5,"timestamp":"2020-12-14T15:11:12.397+0100"}
{"timeMillis":1607955072578,"thread":"Default Executor-thread-5","level":"INFO","loggerName":"MOBTOEP_WORKFLOW","message":"Configuration successfully loaded !","endOfBatch":false,"loggerFqcn":"org.apache.logging.slf4j.Log4jLogger","threadId":58,"threadPriority":5,"timestamp":"2020-12-14T15:11:12.578+0100"}
{"timeMillis":1607955072580,"thread":"Default Executor-thread-5","level":"INFO","loggerName":"MOBTOEP_WORKFLOW","message":"Main process successfully started !","endOfBatch":false,"loggerFqcn":"org.apache.logging.slf4j.Log4jLogger","threadId":58,"threadPriority":5,"timestamp":"2020-12-14T15:11:12.580+0100"}
{"timeMillis":1607955072580,"thread":"Default Executor-thread-5","level":"INFO","loggerName":"MOBTOEP_WORKFLOW","message":"Workflow Service successfully started !","endOfBatch":false,"loggerFqcn":"org.apache.logging.slf4j.Log4jLogger","threadId":58,"threadPriority":5,"timestamp":"2020-12-14T15:11:12.580+0100"}
{"timeMillis":1607955072585,"thread":"Workflow","level":"INFO","loggerName":"MOBTOEP_WORKFLOW","message":"WorkflowService Process Start at Mon Dec 14 15:11:12 CET 2020","endOfBatch":false,"loggerFqcn":"org.apache.logging.slf4j.Log4jLogger","threadId":74,"threadPriority":5,"timestamp":"2020-12-14T15:11:12.585+0100"}
{"timeMillis":1607955073063,"thread":"Workflow","level":"INFO","loggerName":"MOBTOEP_WORKFLOW","message":"Get lock ok for 10.138.9.113","endOfBatch":false,"loggerFqcn":"org.apache.logging.slf4j.Log4jLogger","threadId":74,"threadPriority":5,"timestamp":"2020-12-14T15:11:13.063+0100"}
{"timeMillis":1607955073067,"thread":"Workflow","level":"DEBUG","loggerName":"MOBTOEP_COMMON","message":"ReportDashboard query = SELECT WorkflowEventId, WorkflowId, Comment, CreationDateTime, IsTreated FROM [wf].[WorkflowEvent] WHERE IsTreated=0","endOfBatch":false,"loggerFqcn":"org.apache.logging.slf4j.Log4jLogger","threadId":74,"threadPriority":5,"timestamp":"2020-12-14T15:11:13.067+0100"}
{"timeMillis":1607955073100,"thread":"Workflow","level":"DEBUG","loggerName":"MOBTOEP_WORKFLOW","message":"processEvents 0","endOfBatch":false,"loggerFqcn":"org.apache.logging.slf4j.Log4jLogger","threadId":74,"threadPriority":5,"timestamp":"2020-12-14T15:11:13.100+0100"}
{"timeMillis":1607955073102,"thread":"Workflow","level":"ERROR","loggerName":"MOBTOEP_WORKFLOW","message":"ClearTemporaryDirectory Exception\njava.lang.NullPointerException\n\tat com.bizzdev.delijn.workflow.WorkflowService.clearTemporaryDirectory(WorkflowService.java:428)\n\tat com.bizzdev.delijn.workflow.WorkflowService.start(WorkflowService.java:108)\n\tat com.bizzdev.delijn.workflow.WorkflowTask.run(WorkflowTask.java:26)\n\tat java.util.TimerThread.mainLoop(Timer.java:555)\n\tat java.util.TimerThread.run(Timer.java:505)\n","thrown":{"commonElementCount":0,"name":"java.lang.NullPointerException","extendedStackTrace":"java.lang.NullPointerException: null\n\tat com.bizzdev.delijn.workflow.WorkflowService.clearTemporaryDirectory(WorkflowService.java:428) [MobToep-Workflow-Service.war:?]\n\tat com.bizzdev.delijn.workflow.WorkflowService.start(WorkflowService.java:108) [MobToep-Workflow-Service.war:?]\n\tat com.bizzdev.delijn.workflow.WorkflowTask.run(WorkflowTask.java:26) [MobToep-Workflow-Service.war:?]\n\tat java.util.TimerThread.mainLoop(Timer.java:555) [?:1.8.0_265]\n\tat java.util.TimerThread.run(Timer.java:505) [?:1.8.0_265]\n"},"endOfBatch":false,"loggerFqcn":"org.apache.logging.slf4j.Log4jLogger","threadId":74,"threadPriority":5,"timestamp":"2020-12-14T15:11:13.102+0100"}
{"timeMillis":1607955073133,"thread":"Workflow","level":"INFO","loggerName":"MOBTOEP_WORKFLOW","message":"Release lock for 10.138.9.113","endOfBatch":false,"loggerFqcn":"org.apache.logging.slf4j.Log4jLogger","threadId":74,"threadPriority":5,"timestamp":"2020-12-14T15:11:13.133+0100"}
{"timeMillis":1607955132580,"thread":"Workflow","level":"INFO","loggerName":"MOBTOEP_WORKFLOW","message":"WorkflowService Process Start at Mon Dec 14 15:12:12 CET 2020","endOfBatch":false,"loggerFqcn":"org.apache.logging.slf4j.Log4jLogger","threadId":74,"threadPriority":5,"timestamp":"2020-12-14T15:12:12.580+0100"}
{"timeMillis":1607955132589,"thread":"Workflow","level":"INFO","loggerName":"MOBTOEP_WORKFLOW","message":"Get lock ok for 10.138.9.113","endOfBatch":false,"loggerFqcn":"org.apache.logging.slf4j.Log4jLogger","threadId":74,"threadPriority":5,"timestamp":"2020-12-14T15:12:12.589+0100"}
{"timeMillis":1607955132592,"thread":"Workflow","level":"DEBUG","loggerName":"MOBTOEP_COMMON","message":"ReportDashboard query = SELECT WorkflowEventId, WorkflowId, Comment, CreationDateTime, IsTreated FROM [wf].[WorkflowEvent] WHERE IsTreated=0","endOfBatch":false,"loggerFqcn":"org.apache.logging.slf4j.Log4jLogger","threadId":74,"threadPriority":5,"timestamp":"2020-12-14T15:12:12.592+0100"}
{"timeMillis":1607955132624,"thread":"Workflow","level":"DEBUG","loggerName":"MOBTOEP_WORKFLOW","message":"processEvents 0","endOfBatch":false,"loggerFqcn":"org.apache.logging.slf4j.Log4jLogger","threadId":74,"threadPriority":5,"timestamp":"2020-12-14T15:12:12.624+0100"}
{"timeMillis":1607955132625,"thread":"Workflow","level":"ERROR","loggerName":"MOBTOEP_WORKFLOW","message":"ClearTemporaryDirectory Exception\njava.lang.NullPointerException\n\tat com.bizzdev.delijn.workflow.WorkflowService.clearTemporaryDirectory(WorkflowService.java:428)\n\tat com.bizzdev.delijn.workflow.WorkflowService.start(WorkflowService.java:108)\n\tat com.bizzdev.delijn.workflow.WorkflowTask.run(WorkflowTask.java:26)\n\tat java.util.TimerThread.mainLoop(Timer.java:555)\n\tat java.util.TimerThread.run(Timer.java:505)\n","thrown":{"commonElementCount":0,"name":"java.lang.NullPointerException","extendedStackTrace":"java.lang.NullPointerException: null\n\tat com.bizzdev.delijn.workflow.WorkflowService.clearTemporaryDirectory(WorkflowService.java:428) [MobToep-Workflow-Service.war:?]\n\tat com.bizzdev.delijn.workflow.WorkflowService.start(WorkflowService.java:108) [MobToep-Workflow-Service.war:?]\n\tat com.bizzdev.delijn.workflow.WorkflowTask.run(WorkflowTask.java:26) [MobToep-Workflow-Service.war:?]\n\tat java.util.TimerThread.mainLoop(Timer.java:555) [?:1.8.0_265]\n\tat java.util.TimerThread.run(Timer.java:505) [?:1.8.0_265]\n"},"endOfBatch":false,"loggerFqcn":"org.apache.logging.slf4j.Log4jLogger","threadId":74,"threadPriority":5,"timestamp":"2020-12-14T15:12:12.625+0100"}
{"timeMillis":1607955132637,"thread":"Workflow","level":"INFO","loggerName":"MOBTOEP_WORKFLOW","message":"Release lock for 10.138.9.113","endOfBatch":false,"loggerFqcn":"org.apache.logging.slf4j.Log4jLogger","threadId":74,"threadPriority":5,"timestamp":"2020-12-14T15:12:12.637+0100"}
{"timeMillis":1607955192580,"thread":"Workflow","level":"INFO","loggerName":"MOBTOEP_WORKFLOW","message":"WorkflowService Process Start at Mon Dec 14 15:13:12 CET 2020","endOfBatch":false,"loggerFqcn":"org.apache.logging.slf4j.Log4jLogger","threadId":74,"threadPriority":5,"timestamp":"2020-12-14T15:13:12.580+0100"}
{"timeMillis":1607955192587,"thread":"Workflow","level":"INFO","loggerName":"MOBTOEP_WORKFLOW","message":"Get lock ok for 10.138.9.113","endOfBatch":false,"loggerFqcn":"org.apache.logging.slf4j.Log4jLogger","threadId":74,"threadPriority":5,"timestamp":"2020-12-14T15:13:12.587+0100"}
{"timeMillis":1607955192587,"thread":"Workflow","level":"DEBUG","loggerName":"MOBTOEP_COMMON","message":"ReportDashboard query = SELECT WorkflowEventId, WorkflowId, Comment, CreationDateTime, IsTreated FROM [wf].[WorkflowEvent] WHERE IsTreated=0","endOfBatch":false,"loggerFqcn":"org.apache.logging.slf4j.Log4jLogger","threadId":74,"threadPriority":5,"timestamp":"2020-12-14T15:13:12.587+0100"}
{"timeMillis":1607955192618,"thread":"Workflow","level":"DEBUG","loggerName":"MOBTOEP_WORKFLOW","message":"processEvents 0","endOfBatch":false,"loggerFqcn":"org.apache.logging.slf4j.Log4jLogger","threadId":74,"threadPriority":5,"timestamp":"2020-12-14T15:13:12.618+0100"}
{"timeMillis":1607955192618,"thread":"Workflow","level":"ERROR","loggerName":"MOBTOEP_WORKFLOW","message":"ClearTemporaryDirectory Exception\njava.lang.NullPointerException\n\tat com.bizzdev.delijn.workflow.WorkflowService.clearTemporaryDirectory(WorkflowService.java:428)\n\tat com.bizzdev.delijn.workflow.WorkflowService.start(WorkflowService.java:108)\n\tat com.bizzdev.delijn.workflow.WorkflowTask.run(WorkflowTask.java:26)\n\tat java.util.TimerThread.mainLoop(Timer.java:555)\n\tat java.util.TimerThread.run(Timer.java:505)\n","thrown":{"commonElementCount":0,"name":"java.lang.NullPointerException","extendedStackTrace":"java.lang.NullPointerException: null\n\tat com.bizzdev.delijn.workflow.WorkflowService.clearTemporaryDirectory(WorkflowService.java:428) [MobToep-Workflow-Service.war:?]\n\tat com.bizzdev.delijn.workflow.WorkflowService.start(WorkflowService.java:108) [MobToep-Workflow-Service.war:?]\n\tat com.bizzdev.delijn.workflow.WorkflowTask.run(WorkflowTask.java:26) [MobToep-Workflow-Service.war:?]\n\tat java.util.TimerThread.mainLoop(Timer.java:555) [?:1.8.0_265]\n\tat java.util.TimerThread.run(Timer.java:505) [?:1.8.0_265]\n"},"endOfBatch":false,"loggerFqcn":"org.apache.logging.slf4j.Log4jLogger","threadId":74,"threadPriority":5,"timestamp":"2020-12-14T15:13:12.618+0100"}
{"timeMillis":1607955192629,"thread":"Workflow","level":"INFO","loggerName":"MOBTOEP_WORKFLOW","message":"Release lock for 10.138.9.113","endOfBatch":false,"loggerFqcn":"org.apache.logging.slf4j.Log4jLogger","threadId":74,"threadPriority":5,"timestamp":"2020-12-14T15:13:12.629+0100"}
{"timeMillis":1607955252581,"thread":"Workflow","level":"INFO","loggerName":"MOBTOEP_WORKFLOW","message":"WorkflowService Process Start at Mon Dec 14 15:14:12 CET 2020","endOfBatch":false,"loggerFqcn":"org.apache.logging.slf4j.Log4jLogger","threadId":74,"threadPriority":5,"timestamp":"2020-12-14T15:14:12.581+0100"}
{"timeMillis":1607955252588,"thread":"Workflow","level":"INFO","loggerName":"MOBTOEP_WORKFLOW","message":"Get lock ok for 10.138.9.113","endOfBatch":false,"loggerFqcn":"org.apache.logging.slf4j.Log4jLogger","threadId":74,"threadPriority":5,"timestamp":"2020-12-14T15:14:12.588+0100"}
{"timeMillis":1607955252588,"thread":"Workflow","level":"DEBUG","loggerName":"MOBTOEP_COMMON","message":"ReportDashboard query = SELECT WorkflowEventId, WorkflowId, Comment, CreationDateTime, IsTreated FROM [wf].[WorkflowEvent] WHERE IsTreated=0","endOfBatch":false,"loggerFqcn":"org.apache.logging.slf4j.Log4jLogger","threadId":74,"threadPriority":5,"timestamp":"2020-12-14T15:14:12.588+0100"}
{"timeMillis":1607955252618,"thread":"Workflow","level":"DEBUG","loggerName":"MOBTOEP_WORKFLOW","message":"processEvents 0","endOfBatch":false,"loggerFqcn":"org.apache.logging.slf4j.Log4jLogger","threadId":74,"threadPriority":5,"timestamp":"2020-12-14T15:14:12.618+0100"}
{"timeMillis":1607955252619,"thread":"Workflow","level":"ERROR","loggerName":"MOBTOEP_WORKFLOW","message":"ClearTemporaryDirectory Exception\njava.lang.NullPointerException\n\tat com.bizzdev.delijn.workflow.WorkflowService.clearTemporaryDirectory(WorkflowService.java:428)\n\tat com.bizzdev.delijn.workflow.WorkflowService.start(WorkflowService.java:108)\n\tat com.bizzdev.delijn.workflow.WorkflowTask.run(WorkflowTask.java:26)\n\tat java.util.TimerThread.mainLoop(Timer.java:555)\n\tat java.util.TimerThread.run(Timer.java:505)\n","thrown":{"commonElementCount":0,"name":"java.lang.NullPointerException","extendedStackTrace":"java.lang.NullPointerException: null\n\tat com.bizzdev.delijn.workflow.WorkflowService.clearTemporaryDirectory(WorkflowService.java:428) [MobToep-Workflow-Service.war:?]\n\tat com.bizzdev.delijn.workflow.WorkflowService.start(WorkflowService.java:108) [MobToep-Workflow-Service.war:?]\n\tat com.bizzdev.delijn.workflow.WorkflowTask.run(WorkflowTask.java:26) [MobToep-Workflow-Service.war:?]\n\tat java.util.TimerThread.mainLoop(Timer.java:555) [?:1.8.0_265]\n\tat java.util.TimerThread.run(Timer.java:505) [?:1.8.0_265]\n"},"endOfBatch":false,"loggerFqcn":"org.apache.logging.slf4j.Log4jLogger","threadId":74,"threadPriority":5,"timestamp":"2020-12-14T15:14:12.619+0100"}
{"timeMillis":1607955252632,"thread":"Workflow","level":"INFO","loggerName":"MOBTOEP_WORKFLOW","message":"Release lock for 10.138.9.113","endOfBatch":false,"loggerFqcn":"org.apache.logging.slf4j.Log4jLogger","threadId":74,"threadPriority":5,"timestamp":"2020-12-14T15:14:12.632+0100"}